Exercise 11
…
Drop the variables litter size and refs.

Rename the variable max. life(mo) to maxlife(mo).

Rename the variable wean mass(g) to weanmass(g).

First I need to drop variables “litter size” and refs

d <- d %>%
  select(-`litter size`, -refs)

d

# A tibble: 1,440 × 12
   order        family      Genus species `mass(g)` `gestation(mo)` `newborn(g)`
   <chr>        <chr>       <chr> <chr>       <dbl>           <dbl>        <dbl>
 1 Artiodactyla Antilocapr… Anti… americ…    45375             8.13        3246.
 2 Artiodactyla Bovidae     Addax nasoma…   182375             9.39        5480 
 3 Artiodactyla Bovidae     Aepy… melamp…    41480             6.35        5093 
 4 Artiodactyla Bovidae     Alce… busela…   150000             7.9        10167.
 5 Artiodactyla Bovidae     Ammo… clarkei    28500             6.8           NA 
 6 Artiodactyla Bovidae     Ammo… lervia     55500             5.08        3810 
 7 Artiodactyla Bovidae     Anti… marsup…    30000             5.72        3910 
 8 Artiodactyla Bovidae     Anti… cervic…    37500             5.5         3846 
 9 Artiodactyla Bovidae     Bison bison     497667.            8.93       20000 
10 Artiodactyla Bovidae     Bison bonasus   500000             9.14       23000.
# ℹ 1,430 more rows
# ℹ 5 more variables: `weaning(mo)` <dbl>, `wean mass(g)` <dbl>,
#   `AFR(mo)` <dbl>, `max. life(mo)` <dbl>, `litters/year` <dbl>

Now that it is done, I want to do the renamings,

d <- d %>%
  rename(
    `maxlife(mo)` = `max. life(mo)`,
    `weanmass(g)` = `wean mass(g)`
  )
d

# A tibble: 1,440 × 12
   order        family      Genus species `mass(g)` `gestation(mo)` `newborn(g)`
   <chr>        <chr>       <chr> <chr>       <dbl>           <dbl>        <dbl>
 1 Artiodactyla Antilocapr… Anti… americ…    45375             8.13        3246.
 2 Artiodactyla Bovidae     Addax nasoma…   182375             9.39        5480 
 3 Artiodactyla Bovidae     Aepy… melamp…    41480             6.35        5093 
 4 Artiodactyla Bovidae     Alce… busela…   150000             7.9        10167.
 5 Artiodactyla Bovidae     Ammo… clarkei    28500             6.8           NA 
 6 Artiodactyla Bovidae     Ammo… lervia     55500             5.08        3810 
 7 Artiodactyla Bovidae     Anti… marsup…    30000             5.72        3910 
 8 Artiodactyla Bovidae     Anti… cervic…    37500             5.5         3846 
 9 Artiodactyla Bovidae     Bison bison     497667.            8.93       20000 
10 Artiodactyla Bovidae     Bison bonasus   500000             9.14       23000.
# ℹ 1,430 more rows
# ℹ 5 more variables: `weaning(mo)` <dbl>, `weanmass(g)` <dbl>,
#   `AFR(mo)` <dbl>, `maxlife(mo)` <dbl>, `litters/year` <dbl>

Step 03

Now I have to Log transform all of the other numeric variables,

d <- d %>%
  mutate(
    across(
      where(is.numeric),
      ~ log(.x)
    )
  )
d

# A tibble: 1,440 × 12
   order        family      Genus species `mass(g)` `gestation(mo)` `newborn(g)`
   <chr>        <chr>       <chr> <chr>       <dbl>           <dbl>        <dbl>
 1 Artiodactyla Antilocapr… Anti… americ…      10.7            2.10         8.09
 2 Artiodactyla Bovidae     Addax nasoma…      12.1            2.24         8.61
 3 Artiodactyla Bovidae     Aepy… melamp…      10.6            1.85         8.54
 4 Artiodactyla Bovidae     Alce… busela…      11.9            2.07         9.23
 5 Artiodactyla Bovidae     Ammo… clarkei      10.3            1.92        NA   
 6 Artiodactyla Bovidae     Ammo… lervia       10.9            1.63         8.25
 7 Artiodactyla Bovidae     Anti… marsup…      10.3            1.74         8.27
 8 Artiodactyla Bovidae     Anti… cervic…      10.5            1.70         8.25
 9 Artiodactyla Bovidae     Bison bison        13.1            2.19         9.90
10 Artiodactyla Bovidae     Bison bonasus      13.1            2.21        10.0 
# ℹ 1,430 more rows
# ℹ 5 more variables: `weaning(mo)` <dbl>, `weanmass(g)` <dbl>,
#   `AFR(mo)` <dbl>, `maxlife(mo)` <dbl>, `litters/year` <dbl>
…
Next, adding the residuals to the dataframe as new variables, I am using resid() function to do this,

d <- d %>%
  mutate(
    relGest = resid(m_gestation),
    relWean = resid(m_weaning),
    relAFR = resid(m_afr),
    relLife = resid(m_lifespan),
    relNewbornMass = resid(m_newborn_mass),
    relWeaningMass = resid(m_weanmass)
  )

d

# A tibble: 1,440 × 18
   order        family      Genus species `mass(g)` `gestation(mo)` `newborn(g)`
   <chr>        <chr>       <chr> <chr>       <dbl>           <dbl>        <dbl>
 1 Artiodactyla Antilocapr… Anti… americ…      10.7            2.10         8.09
 2 Artiodactyla Bovidae     Addax nasoma…      12.1            2.24         8.61
 3 Artiodactyla Bovidae     Aepy… melamp…      10.6            1.85         8.54
 4 Artiodactyla Bovidae     Alce… busela…      11.9            2.07         9.23
 5 Artiodactyla Bovidae     Ammo… clarkei      10.3            1.92        NA   
 6 Artiodactyla Bovidae     Ammo… lervia       10.9            1.63         8.25
 7 Artiodactyla Bovidae     Anti… marsup…      10.3            1.74         8.27
 8 Artiodactyla Bovidae     Anti… cervic…      10.5            1.70         8.25
 9 Artiodactyla Bovidae     Bison bison        13.1            2.19         9.90
10 Artiodactyla Bovidae     Bison bonasus      13.1            2.21        10.0 
# ℹ 1,430 more rows
# ℹ 11 more variables: `weaning(mo)` <dbl>, `weanmass(g)` <dbl>,
#   `AFR(mo)` <dbl>, `maxlife(mo)` <dbl>, `litters/year` <dbl>, relGest <dbl>,
#   relWean <dbl>, relAFR <dbl>, relLife <dbl>, relNewbornMass <dbl>,
#   relWeaningMass <dbl>
…
01) I am first going to do this for, maximum lifespan model

d_maxlife <- d %>%
  drop_na(
    `maxlife(mo)`,
    `gestation(mo)`,
    `newborn(g)`,
    `weaning(mo)`,
    `weanmass(g)`,
    `litters/year`,
    `mass(g)`
  )
d_maxlife

# A tibble: 209 × 18
   order        family      Genus species `mass(g)` `gestation(mo)` `newborn(g)`
   <chr>        <chr>       <chr> <chr>       <dbl>           <dbl>        <dbl>
 1 Artiodactyla Antilocapr… Anti… americ…     10.7             2.10         8.09
 2 Artiodactyla Bovidae     Aepy… melamp…     10.6             1.85         8.54
 3 Artiodactyla Bovidae     Bison bison       13.1             2.19         9.90
 4 Artiodactyla Bovidae     Gaze… subgut…     10.1             1.68         7.79
 5 Artiodactyla Bovidae     Kobus kob         11.0             2.13         8.50
 6 Artiodactyla Bovidae     Mado… kirkii       8.49            1.75         6.48
 7 Artiodactyla Bovidae     Ovis  canade…     11.1             1.79         8.36
 8 Artiodactyla Bovidae     Saiga tatari…     10.6             1.60         8.12
 9 Artiodactyla Bovidae     Sync… caffer      13.1             2.40        10.7 
10 Artiodactyla Camelidae   Came… dromed…     13.0             2.54        10.5 
# ℹ 199 more rows
# ℹ 11 more variables: `weaning(mo)` <dbl>, `weanmass(g)` <dbl>,
#   `AFR(mo)` <dbl>, `maxlife(mo)` <dbl>, `litters/year` <dbl>, relGest <dbl>,
#   relWean <dbl>, relAFR <dbl>, relLife <dbl>, relNewbornMass <dbl>,
#   relWeaningMass <dbl>
…
Here also, before begining, I should first use drop_na() , because I will need complete cases for response plus all candidate predictors for fair AICc comparison. Every candidate model should use same rows.

d_afr <- d %>%
  drop_na(
    `AFR(mo)`,
    `gestation(mo)`,
    `newborn(g)`,
    `weaning(mo)`,
    `weanmass(g)`,
    `litters/year`,
    `mass(g)`
  )
d_afr

# A tibble: 264 × 18
   order        family      Genus species `mass(g)` `gestation(mo)` `newborn(g)`
   <chr>        <chr>       <chr> <chr>       <dbl>           <dbl>        <dbl>
 1 Artiodactyla Antilocapr… Anti… americ…     10.7             2.10         8.09
 2 Artiodactyla Bovidae     Aepy… melamp…     10.6             1.85         8.54
 3 Artiodactyla Bovidae     Bison bison       13.1             2.19         9.90
 4 Artiodactyla Bovidae     Gaze… dorcas       9.74            1.56         7.31
 5 Artiodactyla Bovidae     Gaze… subgut…     10.1             1.68         7.79
 6 Artiodactyla Bovidae     Kobus kob         11.0             2.13         8.50
 7 Artiodactyla Bovidae     Mado… kirkii       8.49            1.75         6.48
 8 Artiodactyla Bovidae     Ovis  canade…     11.1             1.79         8.36
 9 Artiodactyla Bovidae     Ovis  aries       10.8             1.61         7.73
10 Artiodactyla Bovidae     Saiga tatari…     10.6             1.60         8.12
# ℹ 254 more rows
# ℹ 11 more variables: `weaning(mo)` <dbl>, `weanmass(g)` <dbl>,
#   `AFR(mo)` <dbl>, `maxlife(mo)` <dbl>, `litters/year` <dbl>, relGest <dbl>,
#   relWean <dbl>, relAFR <dbl>, relLife <dbl>, relNewbornMass <dbl>,
#   relWeaningMass <dbl>
…
